BIOSTAT 203B Homework 4
…
An example SQL query:

sql_query <- "SELECT i.subject_id, i.hadm_id, i.los
              FROM icustays i;"
(data <- dbGetQuery(con, sql_query)) %>% as_tibble()

## # A tibble: 61,532 x 3
##    subject_id hadm_id   los
##         <int>   <int> <dbl>
##  1        268  110404 3.25 
##  2        269  106296 3.28 
##  3        270  188028 2.89 
##  4        271  173727 2.06 
##  5        272  164716 1.62 
##  6        273  158689 1.49 
##  7        274  130546 8.81 
##  8        275  129886 7.13 
##  9        276  135156 1.34 
## 10        277  171601 0.731
## #  with 61,522 more rows
…
To load the entire table into memory we may use

collect(patients)

## # A tibble: 46,520 x 8
##    row_id subject_id gender dob                 dod                
##  *  <int>      <int> <chr>  <dttm>              <dttm>             
##  1    234        249 F      2075-03-13 00:00:00 NA                 
##  2    235        250 F      2164-12-27 00:00:00 2188-11-22 00:00:00
##  3    236        251 M      2090-03-15 00:00:00 NA                 
##  4    237        252 M      2078-03-06 00:00:00 NA                 
##  5    238        253 F      2089-11-26 00:00:00 NA                 
##  6    239        255 M      2109-08-05 00:00:00 NA                 
##  7    240        256 M      2086-07-31 00:00:00 NA                 
##  8    241        257 F      2031-04-03 00:00:00 2121-07-08 00:00:00
##  9    242        258 F      2124-09-19 00:00:00 NA                 
## 10    243        260 F      2105-03-23 00:00:00 NA                 
## #  with 46,510 more rows, and 3 more variables: dod_hosp <dttm>,
## #   dod_ssn <dttm>, expire_flag <int>
…
study_subjects %>%
  collect() %>%
  mutate(ethnic_group = case_when(
    str_detect(ethnicity, "^ASIAN") ~ "ASIAN",
    str_detect(ethnicity, "^BLACK") ~ "BLACK",
    str_detect(ethnicity, "^HISPANIC") ~ "HISPANIC",
    str_detect(ethnicity, "^WHITE") ~ "WHITE",
    ethnicity %in% unknown_ethnicity ~ NA_character_,
    TRUE ~ NA_character_
  )) %>%
  select(subject_id, gender, ethnic_group) %>%
  print() -> study_subjects

## # A tibble: 1,716 x 3
##    subject_id gender ethnic_group
##         <int> <chr>  <chr>       
##  1        127 F      WHITE       
##  2        150 F      <NA>        
##  3        170 F      WHITE       
##  4        184 M      WHITE       
##  5        222 F      WHITE       
##  6        249 F      WHITE       
##  7        279 M      WHITE       
##  8        291 F      WHITE       
##  9        307 F      WHITE       
## 10        319 F      BLACK       
## #  with 1,706 more rows
…
most <- function(x) {
  if (all(is.na(x))) return(NA_character_)
  y <- table(x, useNA = "no")
  if (length(which(y == max(y))) > 1) return(NA_character_)
  return(names(y)[which.max(y)])
}

study_subjects %>%
  group_by(subject_id) %>%
  summarize(ethnic_group = most(ethnic_group)) %>%
  ungroup() %>%
  mutate(ethnic_group = ifelse(is.na(ethnic_group), "UNKNOWN", ethnic_group)) %>%
  print() -> subject_ethnic_groups

## # A tibble: 1,697 x 2
##    subject_id ethnic_group
##         <int> <chr>       
##  1        127 WHITE       
##  2        150 UNKNOWN     
##  3        170 WHITE       
##  4        184 WHITE       
##  5        222 WHITE       
##  6        249 WHITE       
##  7        279 WHITE       
##  8        291 WHITE       
##  9        307 WHITE       
## 10        319 BLACK       
## #  with 1,687 more rows

study_subjects %>%
  select(subject_id, gender) %>%
  left_join(subject_ethnic_groups, by = "subject_id") %>%
  print() -> study_subjects

## # A tibble: 1,716 x 3
##    subject_id gender ethnic_group
##         <int> <chr>  <chr>       
##  1        127 F      WHITE       
##  2        150 F      UNKNOWN     
##  3        170 F      WHITE       
##  4        184 M      WHITE       
##  5        222 F      WHITE       
##  6        249 F      WHITE       
##  7        279 M      WHITE       
##  8        291 F      WHITE       
##  9        307 F      WHITE       
## 10        319 F      BLACK       
## #  with 1,706 more rows
…
