30-Day Mortality Rate of Patients with Neoplasm Admitted to MICU
…
study_subjects %>%
  collect() %>%
  mutate(ethnic_group = case_when(
    str_detect(ethnicity, "^ASIAN") ~ "ASIAN",
    str_detect(ethnicity, "^BLACK") ~ "BLACK",
    str_detect(ethnicity, "^HISPANIC") ~ "HISPANIC",
    str_detect(ethnicity, "^WHITE") ~ "WHITE",
    ethnicity %in% unknown_ethnicity ~ NA_character_,
    TRUE ~ NA_character_
  )) %>%
  select(subject_id, gender, ethnic_group) %>%
  print() -> study_subjects

## # A tibble: 1,716 x 3
##    subject_id gender ethnic_group
##         <int> <chr>  <chr>       
##  1        127 F      WHITE       
##  2        150 F      <NA>        
##  3        170 F      WHITE       
##  4        184 M      WHITE       
##  5        222 F      WHITE       
##  6        249 F      WHITE       
##  7        279 M      WHITE       
##  8        291 F      WHITE       
##  9        307 F      WHITE       
## 10        319 F      BLACK       
## #  with 1,706 more rows
…
most <- function(x) {
  if (all(is.na(x))) return(NA_character_)
  y <- table(x, useNA = "no")
  if (length(which(y == max(y))) > 1) return(NA_character_)
  return(names(y)[which.max(y)])
}

study_subjects %>%
  group_by(subject_id) %>%
  summarize(ethnic_group = most(ethnic_group)) %>%
  ungroup() %>%
  mutate(ethnic_group = ifelse(is.na(ethnic_group), "UNKNOWN", ethnic_group)) %>%
  print() -> subject_ethnic_groups

## # A tibble: 1,697 x 2
##    subject_id ethnic_group
##         <int> <chr>       
##  1        127 WHITE       
##  2        150 UNKNOWN     
##  3        170 WHITE       
##  4        184 WHITE       
##  5        222 WHITE       
##  6        249 WHITE       
##  7        279 WHITE       
##  8        291 WHITE       
##  9        307 WHITE       
## 10        319 BLACK       
## #  with 1,687 more rows

study_subjects %>%
  select(subject_id, gender) %>%
  left_join(subject_ethnic_groups, by = "subject_id") %>%
  print() -> study_subjects

## # A tibble: 1,716 x 3
##    subject_id gender ethnic_group
##         <int> <chr>  <chr>       
##  1        127 F      WHITE       
##  2        150 F      UNKNOWN     
##  3        170 F      WHITE       
##  4        184 M      WHITE       
##  5        222 F      WHITE       
##  6        249 F      WHITE       
##  7        279 M      WHITE       
##  8        291 F      WHITE       
##  9        307 F      WHITE       
## 10        319 F      BLACK       
## #  with 1,706 more rows
…
