BIOSTAT 203B Homework 2
…
patients %>% 
  print(width = Inf)

## # A tibble: 46,520 x 8
##    ROW_ID SUBJECT_ID GENDER DOB                 DOD                
##     <dbl>      <dbl> <chr>  <dttm>              <dttm>             
##  1    234        249 F      2075-03-13 00:00:00 NA                 
##  2    235        250 F      2164-12-27 00:00:00 2188-11-22 00:00:00
##  3    236        251 M      2090-03-15 00:00:00 NA                 
##  4    237        252 M      2078-03-06 00:00:00 NA                 
##  5    238        253 F      2089-11-26 00:00:00 NA                 
##  6    239        255 M      2109-08-05 00:00:00 NA                 
##  7    240        256 M      2086-07-31 00:00:00 NA                 
##  8    241        257 F      2031-04-03 00:00:00 2121-07-08 00:00:00
##  9    242        258 F      2124-09-19 00:00:00 NA                 
## 10    243        260 F      2105-03-23 00:00:00 NA                 
##    DOD_HOSP            DOD_SSN             EXPIRE_FLAG
##    <dttm>              <dttm>                    <dbl>
##  1 NA                  NA                            0
##  2 2188-11-22 00:00:00 NA                            1
##  3 NA                  NA                            0
##  4 NA                  NA                            0
##  5 NA                  NA                            0
##  6 NA                  NA                            0
##  7 NA                  NA                            0
##  8 2121-07-08 00:00:00 2121-07-08 00:00:00           1
##  9 NA                  NA                            0
## 10 NA                  NA                            0
## #  with 46,510 more rows
…
icustays %>% print(width = Inf) 

## # A tibble: 61,532 x 12
##    ROW_ID SUBJECT_ID HADM_ID ICUSTAY_ID DBSOURCE FIRST_CAREUNIT LAST_CAREUNIT
##     <dbl>      <dbl>   <dbl>      <dbl> <chr>    <chr>          <chr>        
##  1    365        268  110404     280836 carevue  MICU           MICU         
##  2    366        269  106296     206613 carevue  MICU           MICU         
##  3    367        270  188028     220345 carevue  CCU            CCU          
##  4    368        271  173727     249196 carevue  MICU           SICU         
##  5    369        272  164716     210407 carevue  CCU            CCU          
##  6    370        273  158689     241507 carevue  MICU           MICU         
##  7    371        274  130546     254851 carevue  MICU           MICU         
##  8    372        275  129886     219649 carevue  CCU            CCU          
##  9    373        276  135156     206327 carevue  CCU            CCU          
## 10    374        277  171601     272866 carevue  NICU           NICU         
##    FIRST_WARDID LAST_WARDID INTIME              OUTTIME               LOS
##           <dbl>       <dbl> <dttm>              <dttm>              <dbl>
##  1           52          52 2198-02-14 23:27:38 2198-02-18 05:26:11 3.25 
##  2           52          52 2170-11-05 11:05:29 2170-11-08 17:46:57 3.28 
##  3           57          57 2128-06-24 15:05:20 2128-06-27 12:32:29 2.89 
##  4           52          23 2120-08-07 23:12:42 2120-08-10 00:39:04 2.06 
##  5           57          57 2186-12-25 21:08:04 2186-12-27 12:01:13 1.62 
##  6           52          52 2141-04-19 06:12:05 2141-04-20 17:52:11 1.49 
##  7           12          12 2114-06-28 22:28:44 2114-07-07 18:01:16 8.81 
##  8            7           7 2170-10-07 11:28:53 2170-10-14 14:38:07 7.13 
##  9           57          57 2147-11-20 09:02:23 2147-11-21 17:08:52 1.34 
## 10           56          56 2132-10-21 21:11:46 2132-10-22 14:44:48 0.731
## #  with 61,522 more rows
…
##   ICUSTAY_ID = col_double(),
##   ITEMID = col_double(),
##   CHARTTIME = col_character(),
##   STORETIME = col_character(),
##   CGID = col_double(),
##   VALUE = col_double(),
##   VALUENUM = col_double(),
##   VALUEUOM = col_character(),
##   WARNING = col_double(),
##   ERROR = col_double(),
##   RESULTSTATUS = col_logical(),
##   STOPPED = col_logical()
## )

## # A tibble: 1,048,575 x 15
##    ROW_ID SUBJECT_ID HADM_ID ICUSTAY_ID ITEMID CHARTTIME     STORETIME      CGID
##     <dbl>      <dbl>   <dbl>      <dbl>  <dbl> <chr>         <chr>         <dbl>
##  1    788         36  165660     241249 223834 5/12/34 12:00 5/12/34 13:56 17525
##  2    789         36  165660     241249 223835 5/12/34 12:00 5/12/34 13:56 17525
##  3    790         36  165660     241249 224328 5/12/34 12:00 5/12/34 12:18 20823
##  4    791         36  165660     241249 224329 5/12/34 12:00 5/12/34 12:19 20823
##  5    792         36  165660     241249 224330 5/12/34 12:00 5/12/34 12:19 20823
##  6    793         36  165660     241249 224331 5/12/34 12:00 5/12/34 12:19 20823
##  7    794         36  165660     241249 224332 5/12/34 12:00 5/12/34 14:44 17525
##  8    795         36  165660     241249 224663 5/12/34 12:00 5/12/34 14:44 17525
##  9    796         36  165660     241249 224665 5/12/34 12:00 5/12/34 14:44 17525
## 10    797         36  165660     241249 220224 5/12/34 12:35 5/12/34 12:38 20889
##     VALUE VALUENUM VALUEUOM WARNING ERROR RESULTSTATUS STOPPED
##     <dbl>    <dbl> <chr>      <dbl> <dbl> <lgl>        <lgl>  
##  1  15       15    L/min          0     0 NA           NA     
##  2 100      100    <NA>           0     0 NA           NA     
##  3   0.37     0.37 <NA>           0     0 NA           NA     
##  4   6        6    min            0     0 NA           NA     
##  5   2.5      2.5  <NA>           0     0 NA           NA     
##  6   0        0    ml/hr          0     0 NA           NA     
##  7   3        3    <NA>           0     0 NA           NA     
##  8   8        8    <NA>           0     0 NA           NA     
##  9   1.11     1.11 <NA>           0     0 NA           NA     
## 10  58       58    mmHg           1     0 NA           NA     
## #  with 1,048,565 more rows
…
## Warning: 7218 parsing failures.
##  row          col           expected      actual                                   file
## 8674 ABBREVIATION 1/0/T/F/TRUE/FALSE Ensure      '/home/203bdata/mimic-iii/D_ITEMS.csv'
## 8674 UNITNAME     1/0/T/F/TRUE/FALSE mL          '/home/203bdata/mimic-iii/D_ITEMS.csv'
## 8674 PARAM_TYPE   1/0/T/F/TRUE/FALSE Solution    '/home/203bdata/mimic-iii/D_ITEMS.csv'
## 8675 ABBREVIATION 1/0/T/F/TRUE/FALSE Ensure Plus '/home/203bdata/mimic-iii/D_ITEMS.csv'
## 8675 UNITNAME     1/0/T/F/TRUE/FALSE mL          '/home/203bdata/mimic-iii/D_ITEMS.csv'
## .... ............ .................. ........... ......................................
## See problems(...) for more details.

## # A tibble: 12,487 x 10
##    ROW_ID ITEMID LABEL                                       ABBREVIATION
##     <dbl>  <dbl> <chr>                                       <lgl>       
##  1    457    497 Patient controlled analgesia (PCA) [Inject] NA          
##  2    458    498 PCA Lockout (Min)                           NA          
##  3    459    499 PCA Medication                              NA          
##  4    460    500 PCA Total Dose                              NA          
##  5    461    501 PCV Exh Vt (Obser)                          NA          
##  6   1157    927 Allergy 2                                   NA          
##  7   1158    930 Ext                                         NA          
##  8   1159    935 Allergy 3                                   NA          
##  9   1160    938 blood cultures                              NA          
## 10   1161    940 trach care                                  NA          
##    DBSOURCE LINKSTO     CATEGORY UNITNAME PARAM_TYPE CONCEPTID
##    <chr>    <chr>       <chr>    <lgl>    <lgl>      <lgl>    
##  1 carevue  chartevents <NA>     NA       NA         NA       
##  2 carevue  chartevents <NA>     NA       NA         NA       
##  3 carevue  chartevents <NA>     NA       NA         NA       
##  4 carevue  chartevents <NA>     NA       NA         NA       
##  5 carevue  chartevents <NA>     NA       NA         NA       
##  6 carevue  chartevents <NA>     NA       NA         NA       
##  7 carevue  chartevents <NA>     NA       NA         NA       
##  8 carevue  chartevents <NA>     NA       NA         NA       
##  9 carevue  chartevents <NA>     NA       NA         NA       
## 10 carevue  chartevents <NA>     NA       NA         NA       
## #  with 12,477 more rows
…
There are five items in the LABEL variable that measure systolic pressure.

sys_chartevents <- chartevents %>%
  filter(ITEMID %in% systolic$ITEMID) %>%
  arrange(SUBJECT_ID, CHARTTIME) %>%
  print(width = Inf)

## # A tibble: 75,642 x 15
##    ROW_ID SUBJECT_ID HADM_ID ICUSTAY_ID ITEMID CHARTTIME      STORETIME     
##     <dbl>      <dbl>   <dbl>      <dbl>  <dbl> <chr>          <chr>         
##  1      6         23  124321     234044 220050 10/21/57 12:15 10/21/57 12:15
##  2     19         23  124321     234044 220050 10/21/57 13:00 10/21/57 14:09
##  3     25         23  124321     234044 220050 10/21/57 14:00 10/21/57 14:09
##  4     47         23  124321     234044 220050 10/21/57 15:00 10/21/57 15:44
##  5     54         23  124321     234044 220050 10/21/57 16:17 10/21/57 16:24
##  6     60         23  124321     234044 220050 10/21/57 17:00 10/21/57 17:03
##  7     69         23  124321     234044 220050 10/21/57 18:03 10/21/57 18:19
##  8     72         23  124321     234044 220050 10/21/57 19:00 10/21/57 19:12
##  9     79         23  124321     234044 220050 10/21/57 20:00 10/21/57 20:48
## 10     86         23  124321     234044 220050 10/21/57 21:00 10/21/57 21:43
##     CGID VALUE VALUENUM VALUEUOM WARNING ERROR RESULTSTATUS STOPPED
##    <dbl> <dbl>    <dbl> <chr>      <dbl> <dbl> <lgl>        <lgl>  
##  1 16978   181      181 mmHg           0     0 NA           NA     
##  2 16978   133      133 mmHg           0     0 NA           NA     
##  3 16978   132      132 mmHg           0     0 NA           NA     
##  4 16978   145      145 mmHg           0     0 NA           NA     
##  5 16978   152      152 mmHg           0     0 NA           NA     
##  6 16978   138      138 mmHg           0     0 NA           NA     
##  7 16978   156      156 mmHg           0     0 NA           NA     
##  8 16978   132      132 mmHg           0     0 NA           NA     
##  9 19050   140      140 mmHg           0     0 NA           NA     
## 10 19050    66       66 mmHg           0     0 NA           NA     
## #  with 75,632 more rows

This step subsetted chartevents to only include rows that measured systolic pressure.

icustays %>%
  print(width = Inf)

## # A tibble: 61,532 x 12
##    ROW_ID SUBJECT_ID HADM_ID ICUSTAY_ID DBSOURCE FIRST_CAREUNIT LAST_CAREUNIT
##     <dbl>      <dbl>   <dbl>      <dbl> <chr>    <chr>          <chr>        
##  1    365        268  110404     280836 carevue  MICU           MICU         
##  2    366        269  106296     206613 carevue  MICU           MICU         
##  3    367        270  188028     220345 carevue  CCU            CCU          
##  4    368        271  173727     249196 carevue  MICU           SICU         
##  5    369        272  164716     210407 carevue  CCU            CCU          
##  6    370        273  158689     241507 carevue  MICU           MICU         
##  7    371        274  130546     254851 carevue  MICU           MICU         
##  8    372        275  129886     219649 carevue  CCU            CCU          
##  9    373        276  135156     206327 carevue  CCU            CCU          
## 10    374        277  171601     272866 carevue  NICU           NICU         
##    FIRST_WARDID LAST_WARDID INTIME              OUTTIME               LOS
##           <dbl>       <dbl> <dttm>              <dttm>              <dbl>
##  1           52          52 2198-02-14 23:27:38 2198-02-18 05:26:11 3.25 
##  2           52          52 2170-11-05 11:05:29 2170-11-08 17:46:57 3.28 
##  3           57          57 2128-06-24 15:05:20 2128-06-27 12:32:29 2.89 
##  4           52          23 2120-08-07 23:12:42 2120-08-10 00:39:04 2.06 
##  5           57          57 2186-12-25 21:08:04 2186-12-27 12:01:13 1.62 
##  6           52          52 2141-04-19 06:12:05 2141-04-20 17:52:11 1.49 
##  7           12          12 2114-06-28 22:28:44 2114-07-07 18:01:16 8.81 
##  8            7           7 2170-10-07 11:28:53 2170-10-14 14:38:07 7.13 
##  9           57          57 2147-11-20 09:02:23 2147-11-21 17:08:52 1.34 
## 10           56          56 2132-10-21 21:11:46 2132-10-22 14:44:48 0.731
## #  with 61,522 more rows

icustays %>%
  arrange(SUBJECT_ID, ICUSTAY_ID, INTIME) %>%
  distinct(ICUSTAY_ID, .keep_all = TRUE)

## # A tibble: 61,532 x 12
##    ROW_ID SUBJECT_ID HADM_ID ICUSTAY_ID DBSOURCE FIRST_CAREUNIT LAST_CAREUNIT
##     <dbl>      <dbl>   <dbl>      <dbl> <chr>    <chr>          <chr>        
##  1      1          2  163353     243653 carevue  NICU           NICU         
##  2      2          3  145834     211552 carevue  MICU           MICU         
##  3      3          4  185777     294638 carevue  MICU           MICU         
##  4      4          5  178980     214757 carevue  NICU           NICU         
##  5      5          6  107064     228232 carevue  SICU           SICU         
##  6      7          7  118037     236754 carevue  NICU           NICU         
##  7      6          7  118037     278444 carevue  NICU           NICU         
##  8      8          8  159514     262299 carevue  NICU           NICU         
##  9      9          9  150750     220597 carevue  MICU           MICU         
## 10     10         10  184167     288409 carevue  NICU           NICU         
## #  with 61,522 more rows, and 5 more variables: FIRST_WARDID <dbl>,
## #   LAST_WARDID <dbl>, INTIME <dttm>, OUTTIME <dttm>, LOS <dbl>
…
